<svg width="44" height="44" viewBox="0 0 44 44" fill="none" xmlns="http://www.w3.org/2000/svg">
<rect width="44" height="44" rx="6" fill="white"/>
<g clip-path="url(#clip0)">
<path d="M20.0628 24.3858L19.765 28.5738C20.191 28.5738 20.3755 28.3908 20.5968 28.1711L22.594 26.2623L26.7325 29.2931C27.4915 29.7161 28.0263 29.4933 28.231 28.5948L30.9475 15.8658L30.9483 15.8651C31.189 14.7431 30.5425 14.3043 29.803 14.5796L13.8355 20.6928C12.7458 21.1158 12.7623 21.7233 13.6503 21.9986L17.7325 23.2683L27.2148 17.3351C27.661 17.0396 28.0668 17.2031 27.733 17.4986L20.0628 24.3858Z" fill="#003C72"/>
</g>
<defs>
<clipPath id="clip0">
<rect width="18" height="18" fill="white" transform="translate(13 13)"/>
</clipPath>
</defs>
</svg>
